Project 2: Data Mining, Classification, Prediction
…
fnv2 <- fnv %>% na_if("") %>% na_if("na")

# The below lines are for answering questions regarding the
# number of observations required in the descriptive
# paragraph for this part.

# fnv2 %>% group_by(`Unique?`) %>% summarize(n()) fnv2 %>%
# group_by(Type) %>% summarize(n())

# The shotgun damage should exclude excessive information
# about pellet damage. The tabs found in the weapon name
# column should be removed.
fnv2

## # A tibble: 243 x 23
##    `Weapon Name` `Damage Per Sho `Damage Per Sec `Rate of Fire`
##    <chr>         <chr>            <chr>            <chr>         
##  1 arc welder    9                72               8             
##  2 flamer        16               130              8             
##  3 cleansing fl 15               115              7             
##  4 gatling laser 10               300              30            
##  5 sprtel-wood  16               320              20            
##  6 heavy incine 15               148              4             
##  7 incinerator   1                46               2             
##  8 plasma caster 65               195              3             
##  9 the smitty s 35               245              7             
## 10 tesla cannon  80               127.4            1.34          
## #  with 233 more rows, and 19 more variables: `Critical Chance
## #   Multiplier` <chr>, `Critical Hit Damage` <chr>, `Action Point Cost` <chr>,
## #   `Damage Per Action Point` <chr>, `Weapon Spread` <chr>, `Ammunition
## #   Type` <chr>, `Magazine Capacity` <chr>, `Weapon Durability in Shots Until
## #   Breaking` <chr>, `Weapon Weight` <chr>, `Weapon Value in Caps` <chr>,
## #   `Value to Weight Ratio` <chr>, `Skill Required` <chr>, `Strength
## #   Required` <chr>, Dependency <chr>, `Unique?` <chr>, `Secondary
## #   Effect` <chr>, `Secondary Effect Damage` <chr>, Type <chr>, `Area of
## #   Effect` <chr>
…
# Below is the final code, tidy and ready for further
# analysis.

fnv_tidy

## # A tibble: 243 x 26
##    `Weapon Name` `Damage Per Sho `Damage Per Sec `Rate of Fire`
##    <fct>                    <dbl>            <dbl>          <dbl>
##  1 arc welder                   9              72            8   
##  2 flamer                      16             130            8   
##  3 cleansing fl               15             115            7   
##  4 gatling laser               10             300           30   
##  5 sprtel-wood                16             320           20   
##  6 heavy incine               15             148            4   
##  7 incinerator                  1              46            2   
##  8 plasma caster               65             195            3   
##  9 the smitty s               35             245            7   
## 10 tesla cannon                80             127.           1.34
## #  with 233 more rows, and 22 more variables: `Critical Chance
## #   Multiplier` <dbl>, `Critical Hit Damage` <dbl>, `Action Point Cost` <dbl>,
## #   `Damage Per Action Point` <dbl>, `Weapon Spread` <dbl>, `Ammunition
## #   Type` <fct>, `Magazine Capacity` <int>, `Shots Per Reload` <int>, `Weapon
## #   Durability in Shots Until Breaking` <int>, `Weapon Weight` <dbl>, `Weapon
## #   Value in Caps` <int>, `Value to Weight Ratio` <dbl>, `Skill
## #   Required` <int>, `Strength Required` <int>, Dependency <chr>,
## #   `Unique?` <lgl>, `Secondary Effect` <chr>, `Tertiary Effect` <chr>,
## #   `Secondary Effect Damage` <dbl>, `Tertiary Effect Damage` <dbl>,
…
